…
Extract weights for downstream analysis:

``` r
augmented <- augment(result)
augmented[, c("sex", "race", ".weight")]
#> # A tibble: 966 × 3
#>    sex    race     .weight
#>    <chr>  <chr>      <dbl>
#>  1 Female White      0.895
#>  2 Male   White      0.911
#>  3 Female White      0.895
#>  4 Male   <NA>       1.29 
#>  5 Female Black      1.14 
#>  6 Male   White      0.911
#>  7 Male   Black      1.16 
#>  8 Male   Hispanic   1.63 
#>  9 Male   White      0.911
#> 10 Female White      0.895
#> # ℹ 956 more rows
```
…
