Getting Started with ipf • ipf
…
This vignette walks through a complete raking workflow using the
bundled anes24 dataset — a subset of the 2024 American
National Election Study.

Setup

library(ipf)
data(anes24)

The data contains 966 respondents from the ANES 2024 face-to-face
sample:

anes24
#> # A tibble: 966 × 8
#>    state sex    race     income     education    married  presidential region   
#>    <chr> <chr>  <chr>    <chr>      <chr>        <chr>    <chr>        <chr>    
#>  1 CO    Female White    Over $100k NA           Divorced Trump        West     
#>  2 CA    Male   White    Over $100k NA           Married  Harris       West     
#>  3 NC    Female White    NA         Bachelor's   Married  Harris       South    
#>  4 MA    Male   NA       Over $100k Some college Married  Trump        Northeast
#>  5 WA    Female Black    NA         Bachelor's   Married  NA           West     
#>  6 GA    Male   White    $50k-$100k NA           NA       Trump        South    
#>  7 AR    Male   Black    Under $50k NA           NA       Harris       South    
#>  8 TX    Male   Hispanic Under $50k Some college NA       Trump        South    
#>  9 OR    Male   White    Under $50k NA           Divorced NA           West     
#> 10 AL    Female White    Under $50k NA           Divorced NA           South    
#> # ℹ 956 more rows
…
